0.00;0.00;0.00
0.00;0.00;-20.00
0.00;-10.00;-20.00
20.00;-10.00;-20.00
20.00;-10.00;-5.00
10.00;-10.00;-5.00
10.00;-10.00;5.00
0.00;-10.00;5.00
0.00;-10.00;20.00
-10.00;-10.00;20.00
-10.00;-20.00;20.00